{
    "family": "profile",
    "networkMode" : "host",
    "containerDefinitions": [
        {

            "image": "URL/profile:v_%BUILD_NUMBER%",
            "name": "profile",
            "cpu": 600,
        "environment" : [
          { "name" : "SPRING_PROFILES_ACTIVE",
            "value" : "userinput"
          },
          {
          	"name": "SPRING_MAVEN_PROFILE",
          	"value": "profile"
          },
          {
            "name" : "releaseName",
            "value" : "psd2-release"
          },
          {
            "name" : "keyStoreName",
            "value" : "keystore"
          },
          {
            "name" : "region",
            "value" : "aws_region"
          },
          {
            "name" : "cipherBucketName",
            "value" : "bucket_name"
          }
          ],
          "logConfiguration": {
                "logDriver": "awslogs",
                "options": {
                    "awslogs-group": "AWS_ECS",
                    "awslogs-region": "aws_region",
                    "awslogs-stream-prefix": "profile"
                }
            },
            "memoryReservation": 400,
            "essential": true
        }
    ]
}
