{
	"AWSTemplateFormatVersion": "2010-09-09",
	"Description": "CloudFormation Template to provision the ApplicationloadBalancer",
	"Parameters": {
		"ArnOfAlbSslCertificateForlistenerport443": {
			"Description": "ARN of the certificates to be associated with ELB",
			"Type": "String"
		},
		"ArnOfAlbSslCertificateForlistenerport8443": {
			"Description": "ARN of the certificates to be associated with ELB",
			"Type": "String"
		},
		"ArnOfAlbSslCertificateForlistenerport8087": {
			"Description": "ARN of the certificates to be associated with ELB",
			"Type": "String"
		},
		"ArnOfAlbSslCertificateForlistenerport8082": {
			"Description": "ARN of the certificates to be associated with ELB",
			"Type": "String"
		},
		"ArnOfAlbSslCertificateForlistenerport9031": {
			"Description": "ARN of the certificates to be associated with ELB",
			"Type": "String"
		},
		"ArnOfAlbSslCertificateForlistenerport9999": {
			"Description": "ARN of the certificates to be associated with ELB",
			"Type": "String"
		},
		"PrivateDomainName": {
			"Description": "Domain Name for private (Intra VPC) DNS Entries",
			"Type": "String"
		},
		"PrivateHostedZoneId": {
			"Description": "HostedZoneID of the private Hostedzone",
			"Type": "String"
		},
		"ClientName":{
			"Type": "String",
			"Description": "Client name"
		},
		"Environment": {
			"Type": "String",
			"Description": "Environment to be provisioned",
			"Default": "dev",
			"AllowedValues": ["dev","test","sit","uat","preprod","prod"]
		},
		"ALBAccessLogsBucket": {
			"Description": "Contains css, js and static images for devportal page and Ssam and PF login page (PF page not needed after AZ AD connectivity).",
			"Default": "api-platform-alb",
			"Type": "String"
		},
		"NetscalerMGMTSecurityGroup": {
			"Description": "SecurityGroup for NetscalerLoadBalancer",
			"Type": "String"
		},
		"MuleRuntimeSecurityGroup": {
			"Description": "SecurityGroup for NetscalerLoadBalancer",
			"Type": "String"
		},
		"LBSecurityGroup": {
			"Description": "SecurityGroup for LoadBalancer",
			"Type": "String"
		},
		"PingFederateAdminSecurityGroup": {
			"Description": "SecurityGroup for NetscalerLoadBalancer",
			"Type": "String"
		},
		"PingFederateRuntimeSecurityGroup": {
			"Description": "SecurityGroup for NetscalerLoadBalancer",
			"Type": "String"
		},
		"ZuulSecurityGroup": {
			"Description": "SecurityGroup for NetscalerLoadBalancer",
			"Type": "String"
		},
		"ConfigSecurityGroup": {
			"Description": "SecurityGroup for NetscalerLoadBalancer",
			"Type": "String"
		},
		"ConfigUtilitySecurityGroup": {
			"Description": "SecurityGroup for NetscalerLoadBalancer",
			"Type": "String"
		},
		"ConsentSecurityGroup": {
			"Description": "SecurityGroup for NetscalerLoadBalancer",
			"Type": "String"
		},
		"AuthenticationSecurityGroup": {
			"Description": "SecurityGroup for NetscalerLoadBalancer",
			"Type": "String"
		},
		"TPPPortalSecurityGroup": {
			"Description": "SecurityGroup for NetscalerLoadBalancer",
			"Type": "String"
		},
		"MicroservicesSecurityGroup": {
			"Description": "SecurityGroup for NetscalerLoadBalancer",
			"Type": "String"
		},
		"LBSubnetAZ1": {
			"Description": "ELB subnet #1 of the VPC",
			"Type": "String"
		},
		"LBSubnetAZ2": {
			"Description": "ELB subnet #1 of the VPC",
			"Type": "String"
		},
		"BOILoadBalancerMonitors": {
			"Description": "SNS Topic for Scale Down",
			"Type": "String"
		},
		"VPCCidrBlock": {
			"Type": "String",
			"Description": "Cidr block of the VPC",
			"Default": "10.1.16.0/20",
			"AllowedPattern": "(\\d{1,3}).(\\d{1,3}).(\\d{1,3}).(\\d{1,3})/(\\d{1,2})",
			"MaxLength": 18,
			"MinLength": 9
		},
		"NetScalerNSIPSubnetCidrBlockAZ1": {
			"Type": "String",
			"Description": "Cidr block of NetScalerNSIPSubnetAZ1",
			"Default": "10.1.17.0/26",
			"AllowedPattern": "(\\d{1,3}).(\\d{1,3}).(\\d{1,3}).(\\d{1,3})/(\\d{1,2})",
			"MaxLength": 18,
			"MinLength": 9
		},
		"NetScalerNSIPSubnetCidrBlockAZ2": {
			"Type": "String",
			"Description": "Cidr block of NetScalerNSIPSubnetAZ2",
			"Default": "10.1.17.64/26",
			"AllowedPattern": "(\\d{1,3}).(\\d{1,3}).(\\d{1,3}).(\\d{1,3})/(\\d{1,2})",
			"MaxLength": 18,
			"MinLength": 9
		},
		"MuleRuntimeSubnetCidrBlockAZ1": {
			"Type": "String",
			"Description": "Cidr block of MuleRuntimeSubnetAZ1",
			"Default": "10.1.22.0/26",
			"AllowedPattern": "(\\d{1,3}).(\\d{1,3}).(\\d{1,3}).(\\d{1,3})/(\\d{1,2})",
			"MaxLength": 18,
			"MinLength": 9
		},
		"MuleRuntimeSubnetCidrBlockAZ2": {
			"Type": "String",
			"Description": "Cidr block of MuleRuntimeSubnetAZ2",
			"Default": "10.1.22.64/26",
			"AllowedPattern": "(\\d{1,3}).(\\d{1,3}).(\\d{1,3}).(\\d{1,3})/(\\d{1,2})",
			"MaxLength": 18,
			"MinLength": 9
		},
		"FederationSubnetCidrBlockAZ1": {
			"Type": "String",
			"Description": "Cidr block of FederationSubnetAZ1",
			"Default": "10.1.23.0/26",
			"AllowedPattern": "(\\d{1,3}).(\\d{1,3}).(\\d{1,3}).(\\d{1,3})/(\\d{1,2})",
			"MaxLength": 18,
			"MinLength": 9
		},
		"FederationSubnetCidrBlockAZ2": {
			"Type": "String",
			"Description": "Cidr block of FederationSubnetAZ2",
			"Default": "10.1.23.64/26",
			"AllowedPattern": "(\\d{1,3}).(\\d{1,3}).(\\d{1,3}).(\\d{1,3})/(\\d{1,2})",
			"MaxLength": 18,
			"MinLength": 9
		},
		"ZuulSubnetCidrBlockAZ1": {
			"Type": "String",
			"Description": "Cidr block of ZuulSubnetAZ1",
			"Default": "10.1.25.0/26",
			"AllowedPattern": "(\\d{1,3}).(\\d{1,3}).(\\d{1,3}).(\\d{1,3})/(\\d{1,2})",
			"MaxLength": 18,
			"MinLength": 9
		},
		"ZuulSubnetCidrBlockAZ2": {
			"Type": "String",
			"Description": "Cidr block of ZuulSubnetAZ2",
			"Default": "10.1.25.64/26",
			"AllowedPattern": "(\\d{1,3}).(\\d{1,3}).(\\d{1,3}).(\\d{1,3})/(\\d{1,2})",
			"MaxLength": 18,
			"MinLength": 9
		},
		"EurekaSubnetCidrBlockAZ1": {
			"Type": "String",
			"Description": "Cidr block of EurekaSubnetAZ1",
			"Default": "10.1.26.0/26",
			"AllowedPattern": "(\\d{1,3}).(\\d{1,3}).(\\d{1,3}).(\\d{1,3})/(\\d{1,2})",
			"MaxLength": 18,
			"MinLength": 9
		},
		"EurekaSubnetCidrBlockAZ2": {
			"Type": "String",
			"Description": "Cidr block of EurekaSubnetAZ2",
			"Default": "10.1.26.64/26",
			"AllowedPattern": "(\\d{1,3}).(\\d{1,3}).(\\d{1,3}).(\\d{1,3})/(\\d{1,2})",
			"MaxLength": 18,
			"MinLength": 9
		},
		"UISubnetCidrBlockAZ1": {
			"Type": "String",
			"Description": "Cidr block of UISubnetAZ1",
			"Default": "10.1.27.0/26",
			"AllowedPattern": "(\\d{1,3}).(\\d{1,3}).(\\d{1,3}).(\\d{1,3})/(\\d{1,2})",
			"MaxLength": 18,
			"MinLength": 9
		},
		"UISubnetCidrBlockAZ2": {
			"Type": "String",
			"Description": "Cidr block of UISubnetAZ2",
			"Default": "10.1.27.64/26",
			"AllowedPattern": "(\\d{1,3}).(\\d{1,3}).(\\d{1,3}).(\\d{1,3})/(\\d{1,2})",
			"MaxLength": 18,
			"MinLength": 9
		},
		"MicroservicesSubnetCidrBlockAZ1": {
			"Type": "String",
			"Description": "Cidr block of MicroservicesSubnetAZ1",
			"Default": "10.1.28.0/26",
			"AllowedPattern": "(\\d{1,3}).(\\d{1,3}).(\\d{1,3}).(\\d{1,3})/(\\d{1,2})",
			"MaxLength": 18,
			"MinLength": 9
		},
		"MicroservicesSubnetCidrBlockAZ2": {
			"Type": "String",
			"Description": "Cidr block of MicroservicesSubnetAZ2",
			"Default": "10.1.28.64/26",
			"AllowedPattern": "(\\d{1,3}).(\\d{1,3}).(\\d{1,3}).(\\d{1,3})/(\\d{1,2})",
			"MaxLength": 18,
			"MinLength": 9
		},
		"LBNACL": {
			"Type": "String",
			"Description": "Network ACL for ALB"
		},
		"VPC": {
			"Description": "VPC of the project",
			"Type": "String"
		}
	},
	"Resources": {
		"ElasticLoadBalancer": {
			"Type": "AWS::ElasticLoadBalancingV2::LoadBalancer",
			"Properties": {
				"SecurityGroups": [{
					"Ref": "LBSecurityGroup"
				}],
				"LoadBalancerAttributes": [{
					"Key" : "access_logs.s3.enabled",
					"Value" : "true"
				},
				{
					"Key" : "access_logs.s3.bucket",
					"Value" : {
						"Fn::Join": ["", [{
							"Ref": "ClientName"
						}, "-", {
							"Ref": "ALBAccessLogsBucket"
						}, "-", {
							"Ref": "Environment"
						}]]
					}
				},
				{
					"Key": "access_logs.s3.prefix",
					"Value": "logs"
				}],
				"Scheme": "internal",
				"Subnets": [{
						"Ref": "LBSubnetAZ1"
					},
					{
						"Ref": "LBSubnetAZ2"
					}
				],
				"Tags": [{
					"Key": "Name",
					"Value": "ApplicationloadBalancer"
				}]
			}
		},
		"NetscalarMGMTToALBIngress": {
			"Type": "AWS::EC2::SecurityGroupIngress",
			"Properties": {
				"FromPort": "443",
				"GroupId": {
					"Ref": "LBSecurityGroup"
				},
				"IpProtocol": "tcp",
				"SourceSecurityGroupId": {
					"Ref": "NetscalerMGMTSecurityGroup"
				},
				"ToPort": "443"
			}
		},
		"MuleRuntimeToALBIngress": {
			"Type": "AWS::EC2::SecurityGroupIngress",
			"Properties": {
				"FromPort": "8443",
				"GroupId": {
					"Ref": "LBSecurityGroup"
				},
				"IpProtocol": "tcp",
				"SourceSecurityGroupId": {
					"Ref": "MuleRuntimeSecurityGroup"
				},
				"ToPort": "8443"
			}
		},
		"PFRuntimeToALBIngress": {
			"Type": "AWS::EC2::SecurityGroupIngress",
			"Properties": {
				"FromPort": "8443",
				"GroupId": {
					"Ref": "LBSecurityGroup"
				},
				"IpProtocol": "tcp",
				"SourceSecurityGroupId": {
					"Ref": "PingFederateRuntimeSecurityGroup"
				},
				"ToPort": "8443"
			}
		},
		"EdgeServerToALBIngress": {
			"Type": "AWS::EC2::SecurityGroupIngress",
			"Properties": {
				"FromPort": "8087",
				"GroupId": {
					"Ref": "LBSecurityGroup"
				},
				"IpProtocol": "tcp",
				"SourceSecurityGroupId": {
					"Ref": "ZuulSecurityGroup"
				},
				"ToPort": "8087"
			}
		},
		"MicroservicesToALBIngress": {
			"Type": "AWS::EC2::SecurityGroupIngress",
			"Properties": {
				"FromPort": "8087",
				"GroupId": {
					"Ref": "LBSecurityGroup"
				},
				"IpProtocol": "tcp",
				"SourceSecurityGroupId": {
					"Ref": "MicroservicesSecurityGroup"
				},
				"ToPort": "8087"
			}
		},
		"ConfigServerToALBIngress": {
			"Type": "AWS::EC2::SecurityGroupIngress",
			"Properties": {
				"FromPort": "8087",
				"GroupId": {
					"Ref": "LBSecurityGroup"
				},
				"IpProtocol": "tcp",
				"SourceSecurityGroupId": {
					"Ref": "ConfigSecurityGroup"
				},
				"ToPort": "8087"
			}
		},
		"TPPAPIToALBIngress": {
			"Type": "AWS::EC2::SecurityGroupIngress",
			"Properties": {
				"FromPort": "8087",
				"GroupId": {
					"Ref": "LBSecurityGroup"
				},
				"IpProtocol": "tcp",
				"SourceSecurityGroupId": {
					"Ref": "TPPPortalSecurityGroup"
				},
				"ToPort": "8087"
			}
		},
		"ConsentToALBIngress": {
			"Type": "AWS::EC2::SecurityGroupIngress",
			"Properties": {
				"FromPort": "8087",
				"GroupId": {
					"Ref": "LBSecurityGroup"
				},
				"IpProtocol": "tcp",
				"SourceSecurityGroupId": {
					"Ref": "ConsentSecurityGroup"
				},
				"ToPort": "8087"
			}
		},
		"SAASAuthenticationToALBIngress": {
			"Type": "AWS::EC2::SecurityGroupIngress",
			"Properties": {
				"FromPort": "8087",
				"GroupId": {
					"Ref": "LBSecurityGroup"
				},
				"IpProtocol": "tcp",
				"SourceSecurityGroupId": {
					"Ref": "AuthenticationSecurityGroup"
				},
				"ToPort": "8087"
			}
		},

		"ConfigUtilityToALBIngress": {
			"Type": "AWS::EC2::SecurityGroupIngress",
			"Properties": {
				"FromPort": "8087",
				"GroupId": {
					"Ref": "LBSecurityGroup"
				},
				"IpProtocol": "tcp",
				"SourceSecurityGroupId": {
					"Ref": "ConfigUtilitySecurityGroup"
				},
				"ToPort": "8087"
			}
		},
		"MuleRuntime8082ToALBIngress": {
			"Type": "AWS::EC2::SecurityGroupIngress",
			"Properties": {
				"FromPort": "8082",
				"GroupId": {
					"Ref": "LBSecurityGroup"
				},
				"IpProtocol": "tcp",
				"SourceSecurityGroupId": {
					"Ref": "MuleRuntimeSecurityGroup"
				},
				"ToPort": "8082"
			}
		},
		"AuthenticationAPIToALBIngress": {
			"Type": "AWS::EC2::SecurityGroupIngress",
			"Properties": {
				"FromPort": "9031",
				"GroupId": {
					"Ref": "LBSecurityGroup"
				},
				"IpProtocol": "tcp",
				"SourceSecurityGroupId": {
					"Ref": "AuthenticationSecurityGroup"
				},
				"ToPort": "9031"
			}
		},
		"MuleAPIToALBIngress": {
			"Type": "AWS::EC2::SecurityGroupIngress",
			"Properties": {
				"FromPort": "9031",
				"GroupId": {
					"Ref": "LBSecurityGroup"
				},
				"IpProtocol": "tcp",
				"SourceSecurityGroupId": {
					"Ref": "MuleRuntimeSecurityGroup"
				},
				"ToPort": "9031"
			}
		},
		"ConsentAPIToALBIngress": {
			"Type": "AWS::EC2::SecurityGroupIngress",
			"Properties": {
				"FromPort": "9031",
				"GroupId": {
					"Ref": "LBSecurityGroup"
				},
				"IpProtocol": "tcp",
				"SourceSecurityGroupId": {
					"Ref": "ConsentSecurityGroup"
				},
				"ToPort": "9031"
			}
		},
		"ConsentAPPToALBIngress": {
			"Type": "AWS::EC2::SecurityGroupIngress",
			"Properties": {
				"FromPort": "9999",
				"GroupId": {
					"Ref": "LBSecurityGroup"
				},
				"IpProtocol": "tcp",
				"SourceSecurityGroupId": {
					"Ref": "ConsentSecurityGroup"
				},
				"ToPort": "9999"
			}
		},
		"TPPAPI9999ToALBIngress": {
			"Type": "AWS::EC2::SecurityGroupIngress",
			"Properties": {
				"FromPort": "9999",
				"GroupId": {
					"Ref": "LBSecurityGroup"
				},
				"IpProtocol": "tcp",
				"SourceSecurityGroupId": {
					"Ref": "TPPPortalSecurityGroup"
				},
				"ToPort": "9999"
			}
		},

		"ALBToVPCEgress": {
			"Type": "AWS::EC2::SecurityGroupEgress",
			"Properties": {
				"FromPort": "0",
				"GroupId": {
					"Ref": "LBSecurityGroup"
				},
				"IpProtocol": "tcp",
				"CidrIp": {
					"Ref": "VPCCidrBlock"
				},
				"ToPort": "65535"
			}
		},
		"AllowInboundNACLEntryFromNetscalarAZ1ToALBSubnet": {
			"Type": "AWS::EC2::NetworkAclEntry",
			"Metadata": {
				"Comment": "Network ACL Entry inbound traffic From NetscalarManagement Subnet To ALB Subnet"
			},
			"Properties": {
				"NetworkAclId": {
					"Ref": "LBNACL"
				},
				"RuleNumber": "100",
				"Protocol": "6",
				"RuleAction": "allow",
				"Egress": "false",
				"CidrBlock": {
					"Ref": "NetScalerNSIPSubnetCidrBlockAZ1"
				},
				"PortRange": {
					"From": "443",
					"To": "443"
				}
			}
		},
		"AllowInboundNACLEntryFromNetscalarAZ2ToALBSubnet": {
			"Type": "AWS::EC2::NetworkAclEntry",
			"Metadata": {
				"Comment": "Network ACL Entry inbound traffic From NetscalarManagement Subnet To ALB Subnet"
			},
			"Properties": {
				"NetworkAclId": {
					"Ref": "LBNACL"
				},
				"RuleNumber": "105",
				"Protocol": "6",
				"RuleAction": "allow",
				"Egress": "false",
				"CidrBlock": {
					"Ref": "NetScalerNSIPSubnetCidrBlockAZ2"
				},
				"PortRange": {
					"From": "443",
					"To": "443"
				}
			}
		},
		"AllowInboundNACLEntry8082FromMuleSubnetAZ1ToALBSubnet": {
			"Type": "AWS::EC2::NetworkAclEntry",
			"Metadata": {
				"Comment": "Network ACL Entry inbound traffic From NetscalarManagement Subnet To ALB Subnet"
			},
			"Properties": {
				"NetworkAclId": {
					"Ref": "LBNACL"
				},
				"RuleNumber": "110",
				"Protocol": "6",
				"RuleAction": "allow",
				"Egress": "false",
				"CidrBlock": {
					"Ref": "MuleRuntimeSubnetCidrBlockAZ1"
				},
				"PortRange": {
					"From": "8082",
					"To": "8082"
				}
			}
		},
		"AllowInboundNACLEntry8082FromMuleSubnetAZ2ToALBSubnet": {
			"Type": "AWS::EC2::NetworkAclEntry",
			"Metadata": {
				"Comment": "Network ACL Entry inbound traffic From NetscalarManagement Subnet To ALB Subnet"
			},
			"Properties": {
				"NetworkAclId": {
					"Ref": "LBNACL"
				},
				"RuleNumber": "115",
				"Protocol": "6",
				"RuleAction": "allow",
				"Egress": "false",
				"CidrBlock": {
					"Ref": "MuleRuntimeSubnetCidrBlockAZ2"
				},
				"PortRange": {
					"From": "8082",
					"To": "8082"
				}
			}
		},
		"AllowInboundNACLEntry8443FromMuleSubnetAZ1ToALBSubnet": {
			"Type": "AWS::EC2::NetworkAclEntry",
			"Metadata": {
				"Comment": "Network ACL Entry inbound traffic From NetscalarManagement Subnet To ALB Subnet"
			},
			"Properties": {
				"NetworkAclId": {
					"Ref": "LBNACL"
				},
				"RuleNumber": "120",
				"Protocol": "6",
				"RuleAction": "allow",
				"Egress": "false",
				"CidrBlock": {
					"Ref": "MuleRuntimeSubnetCidrBlockAZ1"
				},
				"PortRange": {
					"From": "8443",
					"To": "8443"
				}
			}
		},
		"AllowInboundNACLEntry8443FromMuleSubnetAZ2ToALBSubnet": {
			"Type": "AWS::EC2::NetworkAclEntry",
			"Metadata": {
				"Comment": "Network ACL Entry inbound traffic From NetscalarManagement Subnet To ALB Subnet"
			},
			"Properties": {
				"NetworkAclId": {
					"Ref": "LBNACL"
				},
				"RuleNumber": "125",
				"Protocol": "6",
				"RuleAction": "allow",
				"Egress": "false",
				"CidrBlock": {
					"Ref": "MuleRuntimeSubnetCidrBlockAZ2"
				},
				"PortRange": {
					"From": "8443",
					"To": "8443"
				}
			}
		},
		"AllowInboundNACLEntry8443FromPFRuntimeAZ1ToALBSubnet": {
			"Type": "AWS::EC2::NetworkAclEntry",
			"Metadata": {
				"Comment": "Network ACL Entry inbound traffic From NetscalarManagement Subnet To ALB Subnet"
			},
			"Properties": {
				"NetworkAclId": {
					"Ref": "LBNACL"
				},
				"RuleNumber": "130",
				"Protocol": "6",
				"RuleAction": "allow",
				"Egress": "false",
				"CidrBlock": {
					"Ref": "FederationSubnetCidrBlockAZ1"
				},
				"PortRange": {
					"From": "8443",
					"To": "8443"
				}
			}
		},
		"AllowInboundNACLEntry8443FromPFRuntimeAZ2ToALBSubnet": {
			"Type": "AWS::EC2::NetworkAclEntry",
			"Metadata": {
				"Comment": "Network ACL Entry inbound traffic From NetscalarManagement Subnet To ALB Subnet"
			},
			"Properties": {
				"NetworkAclId": {
					"Ref": "LBNACL"
				},
				"RuleNumber": "135",
				"Protocol": "6",
				"RuleAction": "allow",
				"Egress": "false",
				"CidrBlock": {
					"Ref": "FederationSubnetCidrBlockAZ2"
				},
				"PortRange": {
					"From": "8443",
					"To": "8443"
				}
			}
		},
		"AllowInboundNACLEntry8087FromMicroServiceAZ1ToALBSubnet": {
			"Type": "AWS::EC2::NetworkAclEntry",
			"Metadata": {
				"Comment": "Network ACL Entry inbound traffic From NetscalarManagement Subnet To ALB Subnet"
			},
			"Properties": {
				"NetworkAclId": {
					"Ref": "LBNACL"
				},
				"RuleNumber": "140",
				"Protocol": "6",
				"RuleAction": "allow",
				"Egress": "false",
				"CidrBlock": {
					"Ref": "MicroservicesSubnetCidrBlockAZ1"
				},
				"PortRange": {
					"From": "8087",
					"To": "8087"
				}
			}
		},
		"AllowInboundNACLEntry8087FromMicroServiceAZ2ToALBSubnet": {
			"Type": "AWS::EC2::NetworkAclEntry",
			"Metadata": {
				"Comment": "Network ACL Entry inbound traffic From NetscalarManagement Subnet To ALB Subnet"
			},
			"Properties": {
				"NetworkAclId": {
					"Ref": "LBNACL"
				},
				"RuleNumber": "145",
				"Protocol": "6",
				"RuleAction": "allow",
				"Egress": "false",
				"CidrBlock": {
					"Ref": "MicroservicesSubnetCidrBlockAZ2"
				},
				"PortRange": {
					"From": "8087",
					"To": "8087"
				}
			}
		},
		"AllowInboundNACLEntry8087FromZuulSubnetAZ1ToALBSubnet": {
			"Type": "AWS::EC2::NetworkAclEntry",
			"Metadata": {
				"Comment": "Network ACL Entry inbound traffic From NetscalarManagement Subnet To ALB Subnet"
			},
			"Properties": {
				"NetworkAclId": {
					"Ref": "LBNACL"
				},
				"RuleNumber": "150",
				"Protocol": "6",
				"RuleAction": "allow",
				"Egress": "false",
				"CidrBlock": {
					"Ref": "ZuulSubnetCidrBlockAZ1"
				},
				"PortRange": {
					"From": "8087",
					"To": "8087"
				}
			}
		},
		"AllowInboundNACLEntry8087FromZuulSubnetAZ2ToALBSubnet": {
			"Type": "AWS::EC2::NetworkAclEntry",
			"Metadata": {
				"Comment": "Network ACL Entry inbound traffic From NetscalarManagement Subnet To ALB Subnet"
			},
			"Properties": {
				"NetworkAclId": {
					"Ref": "LBNACL"
				},
				"RuleNumber": "155",
				"Protocol": "6",
				"RuleAction": "allow",
				"Egress": "false",
				"CidrBlock": {
					"Ref": "ZuulSubnetCidrBlockAZ2"
				},
				"PortRange": {
					"From": "8087",
					"To": "8087"
				}
			}
		},
		"AllowInboundNACLEntry9999FromUISUBNETAZ1ToALBSubnet": {
			"Type": "AWS::EC2::NetworkAclEntry",
			"Metadata": {
				"Comment": "Network ACL Entry inbound traffic From NetscalarManagement Subnet To ALB Subnet"
			},
			"Properties": {
				"NetworkAclId": {
					"Ref": "LBNACL"
				},
				"RuleNumber": "160",
				"Protocol": "6",
				"RuleAction": "allow",
				"Egress": "false",
				"CidrBlock": {
					"Ref": "UISubnetCidrBlockAZ1"
				},
				"PortRange": {
					"From": "9999",
					"To": "9999"
				}
			}
		},
		"AllowInboundNACLEntry9999FromUISUBNETAZ2ToALBSubnet": {
			"Type": "AWS::EC2::NetworkAclEntry",
			"Metadata": {
				"Comment": "Network ACL Entry inbound traffic From NetscalarManagement Subnet To ALB Subnet"
			},
			"Properties": {
				"NetworkAclId": {
					"Ref": "LBNACL"
				},
				"RuleNumber": "165",
				"Protocol": "6",
				"RuleAction": "allow",
				"Egress": "false",
				"CidrBlock": {
					"Ref": "UISubnetCidrBlockAZ2"
				},
				"PortRange": {
					"From": "9999",
					"To": "9999"
				}
			}
		},
		"AllowInboundNACLEntry9031FromUISUBNETAZ1ToALBSubnet": {
			"Type": "AWS::EC2::NetworkAclEntry",
			"Metadata": {
				"Comment": "Network ACL Entry inbound traffic From NetscalarManagement Subnet To ALB Subnet"
			},
			"Properties": {
				"NetworkAclId": {
					"Ref": "LBNACL"
				},
				"RuleNumber": "170",
				"Protocol": "6",
				"RuleAction": "allow",
				"Egress": "false",
				"CidrBlock": {
					"Ref": "UISubnetCidrBlockAZ1"
				},
				"PortRange": {
					"From": "9031",
					"To": "9031"
				}
			}
		},
		"AllowInboundNACLEntry9031FromUISUBNETAZ2ToALBSubnet": {
			"Type": "AWS::EC2::NetworkAclEntry",
			"Metadata": {
				"Comment": "Network ACL Entry inbound traffic From NetscalarManagement Subnet To ALB Subnet"
			},
			"Properties": {
				"NetworkAclId": {
					"Ref": "LBNACL"
				},
				"RuleNumber": "175",
				"Protocol": "6",
				"RuleAction": "allow",
				"Egress": "false",
				"CidrBlock": {
					"Ref": "UISubnetCidrBlockAZ2"
				},
				"PortRange": {
					"From": "9031",
					"To": "9031"
				}
			}
		},
		"AllowInboundNACLEntry9031FromMuleSUBNETAZ1ToALBSubnet": {
			"Type": "AWS::EC2::NetworkAclEntry",
			"Metadata": {
				"Comment": "Network ACL Entry inbound traffic From NetscalarManagement Subnet To ALB Subnet"
			},
			"Properties": {
				"NetworkAclId": {
					"Ref": "LBNACL"
				},
				"RuleNumber": "180",
				"Protocol": "6",
				"RuleAction": "allow",
				"Egress": "false",
				"CidrBlock": {
					"Ref": "MuleRuntimeSubnetCidrBlockAZ1"
				},
				"PortRange": {
					"From": "9031",
					"To": "9031"
				}
			}
		},
		"AllowInboundNACLEntry9031FromMuleSUBNETAZ2ToALBSubnet": {
			"Type": "AWS::EC2::NetworkAclEntry",
			"Metadata": {
				"Comment": "Network ACL Entry inbound traffic From NetscalarManagement Subnet To ALB Subnet"
			},
			"Properties": {
				"NetworkAclId": {
					"Ref": "LBNACL"
				},
				"RuleNumber": "185",
				"Protocol": "6",
				"RuleAction": "allow",
				"Egress": "false",
				"CidrBlock": {
					"Ref": "MuleRuntimeSubnetCidrBlockAZ2"
				},
				"PortRange": {
					"From": "9031",
					"To": "9031"
				}
			}
		},
		"VPCAllAllowOutboundNACLEntryFromALBSubnet": {
			"Type": "AWS::EC2::NetworkAclEntry",
			"Metadata": {
				"Comment": "Network ACL Entry inbound VPC traffic From Zuul Subnet"
			},
			"Properties": {
				"NetworkAclId": {
					"Ref": "LBNACL"
				},
				"RuleNumber": "190",
				"Protocol": "6",
				"RuleAction": "allow",
				"Egress": "true",
				"CidrBlock": {
					"Ref": "VPCCidrBlock"
				},
				"PortRange": {
					"From": "0",
					"To": "65535"
				}
			}
		},
		"AllowInboundNACLEntry8087UISubnetAZ1ToALBSubnet": {
			"Type": "AWS::EC2::NetworkAclEntry",
			"Metadata": {
				"Comment": "Network ACL Entry inbound traffic From NetscalarManagement Subnet To ALB Subnet"
			},
			"Properties": {
				"NetworkAclId": {
					"Ref": "LBNACL"
				},
				"RuleNumber": "195",
				"Protocol": "6",
				"RuleAction": "allow",
				"Egress": "false",
				"CidrBlock": {
					"Ref": "UISubnetCidrBlockAZ1"
				},
				"PortRange": {
					"From": "8087",
					"To": "8087"
				}
			}
		},
		"AllowInboundNACLEntry8087UISubnetAZ2ToALBSubnet": {
			"Type": "AWS::EC2::NetworkAclEntry",
			"Metadata": {
				"Comment": "Network ACL Entry inbound traffic From NetscalarManagement Subnet To ALB Subnet"
			},
			"Properties": {
				"NetworkAclId": {
					"Ref": "LBNACL"
				},
				"RuleNumber": "200",
				"Protocol": "6",
				"RuleAction": "allow",
				"Egress": "false",
				"CidrBlock": {
					"Ref": "UISubnetCidrBlockAZ2"
				},
				"PortRange": {
					"From": "8087",
					"To": "8087"
				}
			}
		},
		"EphimeralAllowInboundNACLEntryFromVPCToALBSubnet": {
			"Type": "AWS::EC2::NetworkAclEntry",
			"Metadata": {
				"Comment": "Network ACL Entry inbound traffic From ALB Subnet"
			},
			"Properties": {
				"NetworkAclId": {
					"Ref": "LBNACL"
				},
				"RuleNumber": "205",
				"Protocol": "6",
				"RuleAction": "allow",
				"Egress": "false",
				"CidrBlock": {
					"Ref": "VPCCidrBlock"
				},
				"PortRange": {
					"From": "1024",
					"To": "65535"
				}
			}
		},
		"AlarmForELbToMuleTargetGroupResponseTime": {
			"Type": "AWS::CloudWatch::Alarm",
			"Properties": {
				"AlarmActions": [{
					"Ref": "BOILoadBalancerMonitors"
				}],
				"ComparisonOperator": "GreaterThanThreshold",
				"EvaluationPeriods": "1",
				"Dimensions": [{
						"Name": "LoadBalancer",
						"Value": {
							"Fn::GetAtt": ["ElasticLoadBalancer", "LoadBalancerFullName"]
						}
					},
					{
						"Name": "TargetGroup",
						"Value": {
							"Fn::GetAtt": ["MuleTargetGroup", "TargetGroupFullName"]
						}
					}
				],
				"MetricName": "TargetResponseTime",
				"Namespace": "AWS/ApplicationELB",
				"Period": "300",
				"Statistic": "Average",
				"Threshold": "0.5"
			}
		},
		"AlarmForELbClientTLSNegotiationErrorCount": {
			"Type": "AWS::CloudWatch::Alarm",
			"Properties": {
				"AlarmActions": [{
					"Ref": "BOILoadBalancerMonitors"
				}],
				"ComparisonOperator": "GreaterThanThreshold",
				"EvaluationPeriods": "1",
				"Dimensions": [{
					"Name": "LoadBalancer",
					"Value": {
						"Fn::GetAtt": ["ElasticLoadBalancer", "LoadBalancerFullName"]
					}
				}],
				"MetricName": "ClientTLSNegotiationErrorCount",
				"Namespace": "AWS/ApplicationELB",
				"Period": "300",
				"Statistic": "Average",
				"Threshold": "100"
			}
		},
		"AlarmForELbHTTPCodeTarget4XXCount": {
			"Type": "AWS::CloudWatch::Alarm",
			"Properties": {
				"AlarmActions": [{
					"Ref": "BOILoadBalancerMonitors"
				}],
				"ComparisonOperator": "GreaterThanThreshold",
				"EvaluationPeriods": "1",
				"Dimensions": [{
					"Name": "LoadBalancer",
					"Value": {
						"Fn::GetAtt": ["ElasticLoadBalancer", "LoadBalancerFullName"]
					}
				}],
				"MetricName": "HTTPCode_Target_4XX_Count",
				"Namespace": "AWS/ApplicationELB",
				"Period": "300",
				"Statistic": "Average",
				"Threshold": "100"
			}
		},
		"AlarmForELbHTTPCodeTarget5XXCount": {
			"Type": "AWS::CloudWatch::Alarm",
			"Properties": {
				"AlarmActions": [{
					"Ref": "BOILoadBalancerMonitors"
				}],
				"ComparisonOperator": "GreaterThanThreshold",
				"EvaluationPeriods": "1",
				"Dimensions": [{
					"Name": "LoadBalancer",
					"Value": {
						"Fn::GetAtt": ["ElasticLoadBalancer", "LoadBalancerFullName"]
					}
				}],
				"MetricName": "HTTPCode_Target_5XX_Count",
				"Namespace": "AWS/ApplicationELB",
				"Period": "300",
				"Statistic": "Average",
				"Threshold": "100"
			}
		},
		"ApplicationLoadBalancerDns1": {
			"Type": "AWS::Route53::RecordSetGroup",
			"Properties": {
				"HostedZoneId": {
					"Ref": "PrivateHostedZoneId"
				},
				"Comment": "DNS entry to point to ALB",
				"RecordSets": [{
					"Name": {
						"Fn::Join": [".", ["alb", {
							"Ref": "PrivateDomainName"
						}]]
					},
					"Type": "A",
					"AliasTarget": {
						"DNSName": {
							"Fn::GetAtt": ["ElasticLoadBalancer", "DNSName"]
						},
						"HostedZoneId": {
							"Fn::GetAtt": ["ElasticLoadBalancer", "CanonicalHostedZoneID"]
						}
					}
				}]
			}
		},
		"ApplicationLoadBalancerDns2": {
			"Type": "AWS::Route53::RecordSetGroup",
			"Properties": {
				"HostedZoneId": {
					"Ref": "PrivateHostedZoneId"
				},
				"Comment": "DNS entry to point to ALB",
				"RecordSets": [{
					"Name": {
						"Fn::Join": [".", ["config", {
							"Ref": "PrivateDomainName"
						}]]
					},
					"Type": "A",
					"AliasTarget": {
						"DNSName": {
							"Fn::GetAtt": ["ElasticLoadBalancer", "DNSName"]
						},
						"HostedZoneId": {
							"Fn::GetAtt": ["ElasticLoadBalancer", "CanonicalHostedZoneID"]
						}
					}
				}]
			}
		},
		"ApplicationLoadBalancerDns3": {
			"Type": "AWS::Route53::RecordSetGroup",
			"Properties": {
				"HostedZoneId": {
					"Ref": "PrivateHostedZoneId"
				},
				"Comment": "DNS entry to point to ALB",
				"RecordSets": [{
					"Name": {
						"Fn::Join": [".", ["edgeserver", {
							"Ref": "PrivateDomainName"
						}]]
					},
					"Type": "A",
					"AliasTarget": {
						"DNSName": {
							"Fn::GetAtt": ["ElasticLoadBalancer", "DNSName"]
						},
						"HostedZoneId": {
							"Fn::GetAtt": ["ElasticLoadBalancer", "CanonicalHostedZoneID"]
						}
					}
				}]
			}
		},
		"ApplicationLoadBalancerDns4": {
			"Type": "AWS::Route53::RecordSetGroup",
			"Properties": {
				"HostedZoneId": {
					"Ref": "PrivateHostedZoneId"
				},
				"Comment": "DNS entry to point to ALB",
				"RecordSets": [{
					"Name": {
						"Fn::Join": [".", ["pfadmin", {
							"Ref": "PrivateDomainName"
						}]]
					},
					"Type": "A",
					"AliasTarget": {
						"DNSName": {
							"Fn::GetAtt": ["ElasticLoadBalancer", "DNSName"]
						},
						"HostedZoneId": {
							"Fn::GetAtt": ["ElasticLoadBalancer", "CanonicalHostedZoneID"]
						}
					}
				}]
			}
		},
		"ApplicationLoadBalancerDns5": {
			"Type": "AWS::Route53::RecordSetGroup",
			"Properties": {
				"HostedZoneId": {
					"Ref": "PrivateHostedZoneId"
				},
				"Comment": "DNS entry to point to ALB",
				"RecordSets": [{
					"Name": {
						"Fn::Join": [".", ["pfcluster", {
							"Ref": "PrivateDomainName"
						}]]
					},
					"Type": "A",
					"AliasTarget": {
						"DNSName": {
							"Fn::GetAtt": ["ElasticLoadBalancer", "DNSName"]
						},
						"HostedZoneId": {
							"Fn::GetAtt": ["ElasticLoadBalancer", "CanonicalHostedZoneID"]
						}
					}
				}]
			}
		},
		"ApplicationLoadBalancerDns6": {
			"Type": "AWS::Route53::RecordSetGroup",
			"Properties": {
				"HostedZoneId": {
					"Ref": "PrivateHostedZoneId"
				},
				"Comment": "DNS entry to point to ALB",
				"RecordSets": [{
					"Name": {
						"Fn::Join": [".", ["runtime", {
							"Ref": "PrivateDomainName"
						}]]
					},
					"Type": "A",
					"AliasTarget": {
						"DNSName": {
							"Fn::GetAtt": ["ElasticLoadBalancer", "DNSName"]
						},
						"HostedZoneId": {
							"Fn::GetAtt": ["ElasticLoadBalancer", "CanonicalHostedZoneID"]
						}
					}
				}]
			}
		},
		"MuleTargetGroup": {
			"Type": "AWS::ElasticLoadBalancingV2::TargetGroup",
			"Properties": {
				"HealthCheckIntervalSeconds": 30,
				"UnhealthyThresholdCount": 2,
				"HealthCheckPath": "/",
				"Port": 8082,
				"Protocol": "HTTPS",
				"VpcId": {
					"Ref": "VPC"
				}
			}
		},
		"PingFederateRuntimeTargetGroup": {
			"Type": "AWS::ElasticLoadBalancingV2::TargetGroup",
			"Properties": {
				"HealthCheckIntervalSeconds": 30,
				"UnhealthyThresholdCount": 2,
				"HealthCheckPath": "/pf/heartbeat.ping",
				"Port": 9031,
				"Protocol": "HTTPS",
				"VpcId": {
					"Ref": "VPC"
				}
			}
		},
		"PingFederateAdminTargetGroup": {
			"Type": "AWS::ElasticLoadBalancingV2::TargetGroup",
			"Properties": {
				"HealthCheckIntervalSeconds": 30,
				"UnhealthyThresholdCount": 2,
				"HealthCheckPath": "/pingfederate/app",
				"Port": 9999,
				"Protocol": "HTTPS",
				"VpcId": {
					"Ref": "VPC"
				}
			}
		},
		"SplunkSearchHeadTargetGroup": {
			"Type": "AWS::ElasticLoadBalancingV2::TargetGroup",
			"Properties": {
				"HealthCheckIntervalSeconds": 30,
				"UnhealthyThresholdCount": 2,
				"HealthCheckPath": "/",
				"TargetGroupAttributes": [{
					"Key": "stickiness.enabled",
					"Value": "true"
				}],
				"Port": 8000,
				"Protocol": "HTTPS",
				"VpcId": {
					"Ref": "VPC"
				}
			}
		},
		"EdgeServerTargetGroup": {
			"Type": "AWS::ElasticLoadBalancingV2::TargetGroup",
			"Properties": {
				"HealthCheckIntervalSeconds": 30,
				"UnhealthyThresholdCount": 2,
				"HealthCheckPath": "/info",
				"Port": 443,
				"Protocol": "HTTPS",
				"VpcId": {
					"Ref": "VPC"
				}
			}
		},
		"ConfigServerTargetGroup": {
			"Type": "AWS::ElasticLoadBalancingV2::TargetGroup",
			"Properties": {
				"HealthCheckIntervalSeconds": 30,
				"UnhealthyThresholdCount": 2,
				"HealthCheckPath": "/info",
				"Port": 8087,
				"Protocol": "HTTPS",
				"VpcId": {
					"Ref": "VPC"
				}
			}
		},
		"LDAPTargetGroup": {
			"Type": "AWS::ElasticLoadBalancingV2::TargetGroup",
			"Properties": {
				"HealthCheckIntervalSeconds": 30,
				"UnhealthyThresholdCount": 2,
				"HealthCheckPath": "/console/login",
				"Port": 443,
				"TargetGroupAttributes": [{
					"Key": "stickiness.enabled",
					"Value": "true"
				}],
				"Protocol": "HTTPS",
				"VpcId": {
					"Ref": "VPC"
				}
			}
		},
		"SplunkMasterTargetGroup": {
			"Type": "AWS::ElasticLoadBalancingV2::TargetGroup",
			"Properties": {
				"HealthCheckIntervalSeconds": 30,
				"UnhealthyThresholdCount": 2,
				"HealthCheckPath": "/",
				"Port": 8000,
				"Protocol": "HTTPS",
				"VpcId": {
					"Ref": "VPC"
				}
			}
		},
		"ErrorTargetGroup": {
			"Type": "AWS::ElasticLoadBalancingV2::TargetGroup",
			"Properties": {
				"HealthCheckIntervalSeconds": 30,
				"UnhealthyThresholdCount": 2,
				"Port": 443,
				"Protocol": "HTTPS",
				"VpcId": {
					"Ref": "VPC"
				}
			}
		},
		"HttpsListenerForLoadBalancerPort443": {
			"Type": "AWS::ElasticLoadBalancingV2::Listener",
			"Properties": {
				"Certificates": [{
					"CertificateArn": {
						"Ref": "ArnOfAlbSslCertificateForlistenerport443"
					}
				}],
				"DefaultActions": [{
					"TargetGroupArn": {
						"Ref": "ErrorTargetGroup"
					},
					"Type": "forward"
				}],
				"LoadBalancerArn": {
					"Ref": "ElasticLoadBalancer"
				},
				"Port": "443",
				"Protocol": "HTTPS"
			}
		},
		"HttpsListenerForLoadBalancerPort8443": {
			"Type": "AWS::ElasticLoadBalancingV2::Listener",
			"Properties": {
				"Certificates": [{
					"CertificateArn": {
						"Ref": "ArnOfAlbSslCertificateForlistenerport8443"
					}
				}],
				"DefaultActions": [{
					"TargetGroupArn": {
						"Ref": "EdgeServerTargetGroup"
					},
					"Type": "forward"
				}],
				"LoadBalancerArn": {
					"Ref": "ElasticLoadBalancer"
				},
				"Port": "8443",
				"Protocol": "HTTPS"
			}
		},
		"HttpsListenerForLoadBalancerPort8087": {
			"Type": "AWS::ElasticLoadBalancingV2::Listener",
			"Properties": {
				"Certificates": [{
					"CertificateArn": {
						"Ref": "ArnOfAlbSslCertificateForlistenerport8087"
					}
				}],
				"DefaultActions": [{
					"TargetGroupArn": {
						"Ref": "ConfigServerTargetGroup"
					},
					"Type": "forward"
				}],
				"LoadBalancerArn": {
					"Ref": "ElasticLoadBalancer"
				},
				"Port": "8087",
				"Protocol": "HTTPS"
			}
		},
		"HttpsListenerForLoadBalancerPort8082": {
			"Type": "AWS::ElasticLoadBalancingV2::Listener",
			"Properties": {
				"Certificates": [{
					"CertificateArn": {
						"Ref": "ArnOfAlbSslCertificateForlistenerport8082"
					}
				}],
				"DefaultActions": [{
					"TargetGroupArn": {
						"Ref": "MuleTargetGroup"
					},
					"Type": "forward"
				}],
				"LoadBalancerArn": {
					"Ref": "ElasticLoadBalancer"
				},
				"Port": "8082",
				"Protocol": "HTTPS"
			}
		},
		"HttpsListenerForLoadBalancerPort9031": {
			"Type": "AWS::ElasticLoadBalancingV2::Listener",
			"Properties": {
				"Certificates": [{
					"CertificateArn": {
						"Ref": "ArnOfAlbSslCertificateForlistenerport9031"
					}
				}],
				"DefaultActions": [{
					"TargetGroupArn": {
						"Ref": "PingFederateRuntimeTargetGroup"
					},
					"Type": "forward"
				}],
				"LoadBalancerArn": {
					"Ref": "ElasticLoadBalancer"
				},
				"Port": "9031",
				"Protocol": "HTTPS"
			}
		},
		"HttpsListenerForLoadBalancerPort9999": {
			"Type": "AWS::ElasticLoadBalancingV2::Listener",
			"Properties": {
				"Certificates": [{
					"CertificateArn": {
						"Ref": "ArnOfAlbSslCertificateForlistenerport9999"
					}
				}],
				"DefaultActions": [{
					"TargetGroupArn": {
						"Ref": "PingFederateAdminTargetGroup"
					},
					"Type": "forward"
				}],
				"LoadBalancerArn": {
					"Ref": "ElasticLoadBalancer"
				},
				"Port": "9999",
				"Protocol": "HTTPS"
			}
		},
		"ListenerRule1ForHttpsListenerForLoadBalancer": {
			"Type": "AWS::ElasticLoadBalancingV2::ListenerRule",
			"Properties": {
				"Actions": [{
					"Type": "forward",
					"TargetGroupArn": {
						"Ref": "EdgeServerTargetGroup"
					}
				}],
				"Conditions": [{
						"Field": "host-header",
						"Values": ["tpp.*"]
					},
					{
						"Field": "path-pattern",
						"Values": ["/tppportalv1/tppportal/redirectUrl"]
					}
				],
				"ListenerArn": {
					"Ref": "HttpsListenerForLoadBalancerPort443"
				},
				"Priority": 1
			}
		},
		"ListenerRule2ForHttpsListenerForLoadBalancer": {
			"Type": "AWS::ElasticLoadBalancingV2::ListenerRule",
			"Properties": {
				"Actions": [{
					"Type": "forward",
					"TargetGroupArn": {
						"Ref": "EdgeServerTargetGroup"
					}
				}],
				"Conditions": [{
						"Field": "host-header",
						"Values": ["tpp.*"]
					},
					{
						"Field": "path-pattern",
						"Values": ["/tppportalv1/tppportal/logout"]
					}
				],
				"ListenerArn": {
					"Ref": "HttpsListenerForLoadBalancerPort443"
				},
				"Priority": 2
			}
		},
		"ListenerRule3ForHttpsListenerForLoadBalancer": {
			"Type": "AWS::ElasticLoadBalancingV2::ListenerRule",
			"Properties": {
				"Actions": [{
					"Type": "forward",
					"TargetGroupArn": {
						"Ref": "EdgeServerTargetGroup"
					}
				}],
				"Conditions": [{
						"Field": "host-header",
						"Values": ["tpp.*"]
					},
					{
						"Field": "path-pattern",
						"Values": ["/tppportalv1/tppportal/"]
					}
				],
				"ListenerArn": {
					"Ref": "HttpsListenerForLoadBalancerPort443"
				},
				"Priority": 3
			}
		},
		"ListenerRule4ForHttpsListenerForLoadBalancer": {
			"Type": "AWS::ElasticLoadBalancingV2::ListenerRule",
			"Properties": {
				"Actions": [{
					"Type": "forward",
					"TargetGroupArn": {
						"Ref": "EdgeServerTargetGroup"
					}
				}],
				"Conditions": [{
						"Field": "host-header",
						"Values": ["tpp.*"]
					},
					{
						"Field": "path-pattern",
						"Values": ["/tppportalv1/tppportal/redirect"]
					}
				],
				"ListenerArn": {
					"Ref": "HttpsListenerForLoadBalancerPort443"
				},
				"Priority": 4
			}
		},
		"ListenerRule5ForHttpsListenerForLoadBalancer": {
			"Type": "AWS::ElasticLoadBalancingV2::ListenerRule",
			"Properties": {
				"Actions": [{
					"Type": "forward",
					"TargetGroupArn": {
						"Ref": "EdgeServerTargetGroup"
					}
				}],
				"Conditions": [{
						"Field": "host-header",
						"Values": ["tpp.*"]
					},
					{
						"Field": "path-pattern",
						"Values": ["/tppportalv1/tppportal/home"]
					}
				],
				"ListenerArn": {
					"Ref": "HttpsListenerForLoadBalancerPort443"
				},
				"Priority": 5
			}
		},
		"ListenerRule6ForHttpsListenerForLoadBalancer": {
			"Type": "AWS::ElasticLoadBalancingV2::ListenerRule",
			"Properties": {
				"Actions": [{
					"Type": "forward",
					"TargetGroupArn": {
						"Ref": "EdgeServerTargetGroup"
					}
				}],
				"Conditions": [{
						"Field": "host-header",
						"Values": ["tpp.*"]
					},
					{
						"Field": "path-pattern",
						"Values": ["/tppportalv1/tppportal/error"]
					}
				],
				"ListenerArn": {
					"Ref": "HttpsListenerForLoadBalancerPort443"
				},
				"Priority": 6
			}
		},
		"ListenerRule7ForHttpsListenerForLoadBalancer": {
			"Type": "AWS::ElasticLoadBalancingV2::ListenerRule",
			"Properties": {
				"Actions": [{
					"Type": "forward",
					"TargetGroupArn": {
						"Ref": "EdgeServerTargetGroup"
					}
				}],
				"Conditions": [{
						"Field": "host-header",
						"Values": ["tpp.*"]
					},
					{
						"Field": "path-pattern",
						"Values": ["/tppportalv1/tppportal/authError"]
					}
				],
				"ListenerArn": {
					"Ref": "HttpsListenerForLoadBalancerPort443"
				},
				"Priority": 7
			}
		},
		"ListenerRule8ForHttpsListenerForLoadBalancer": {
			"Type": "AWS::ElasticLoadBalancingV2::ListenerRule",
			"Properties": {
				"Actions": [{
					"Type": "forward",
					"TargetGroupArn": {
						"Ref": "EdgeServerTargetGroup"
					}
				}],
				"Conditions": [{
						"Field": "host-header",
						"Values": ["tpp.*"]
					},
					{
						"Field": "path-pattern",
						"Values": ["/tppportalv1/tppportal/application"]
					}
				],
				"ListenerArn": {
					"Ref": "HttpsListenerForLoadBalancerPort443"
				},
				"Priority": 8
			}
		},
		"ListenerRule9ForHttpsListenerForLoadBalancer": {
			"Type": "AWS::ElasticLoadBalancingV2::ListenerRule",
			"Properties": {
				"Actions": [{
					"Type": "forward",
					"TargetGroupArn": {
						"Ref": "EdgeServerTargetGroup"
					}
				}],
				"Conditions": [{
						"Field": "host-header",
						"Values": ["tpp.*"]
					},
					{
						"Field": "path-pattern",
						"Values": ["/tppportalv1/tppportal/ssaToken"]
					}
				],
				"ListenerArn": {
					"Ref": "HttpsListenerForLoadBalancerPort443"
				},
				"Priority": 9
			}
		},
		"ListenerRule10ForHttpsListenerForLoadBalancer": {
			"Type": "AWS::ElasticLoadBalancingV2::ListenerRule",
			"Properties": {
				"Actions": [{
					"Type": "forward",
					"TargetGroupArn": {
						"Ref": "EdgeServerTargetGroup"
					}
				}],
				"Conditions": [{
						"Field": "host-header",
						"Values": ["tpp.*"]
					},
					{
						"Field": "path-pattern",
						"Values": ["/tppportalv1/tppportal/application/*/secret/reset"]
					}
				],
				"ListenerArn": {
					"Ref": "HttpsListenerForLoadBalancerPort443"
				},
				"Priority": 10
			}
		},
		"ListenerRule11ForHttpsListenerForLoadBalancer": {
			"Type": "AWS::ElasticLoadBalancingV2::ListenerRule",
			"Properties": {
				"Actions": [{
					"Type": "forward",
					"TargetGroupArn": {
						"Ref": "EdgeServerTargetGroup"
					}
				}],
				"Conditions": [{
						"Field": "host-header",
						"Values": ["tpp.*"]
					},
					{
						"Field": "path-pattern",
						"Values": ["/tppportalv1/tppportal/application/*/secret"]
					}
				],
				"ListenerArn": {
					"Ref": "HttpsListenerForLoadBalancerPort443"
				},
				"Priority": 11
			}
		},
		"ListenerRule12ForHttpsListenerForLoadBalancer": {
			"Type": "AWS::ElasticLoadBalancingV2::ListenerRule",
			"Properties": {
				"Actions": [{
					"Type": "forward",
					"TargetGroupArn": {
						"Ref": "EdgeServerTargetGroup"
					}
				}],
				"Conditions": [{
						"Field": "host-header",
						"Values": ["tpp.*"]
					},
					{
						"Field": "path-pattern",
						"Values": ["/tppportalv1/tppportal/application/*"]
					}
				],
				"ListenerArn": {
					"Ref": "HttpsListenerForLoadBalancerPort443"
				},
				"Priority": 12
			}
		},
		"ListenerRule13ForHttpsListenerForLoadBalancer": {
			"Type": "AWS::ElasticLoadBalancingV2::ListenerRule",
			"Properties": {
				"Actions": [{
					"Type": "forward",
					"TargetGroupArn": {
						"Ref": "EdgeServerTargetGroup"
					}
				}],
				"Conditions": [{
						"Field": "host-header",
						"Values": ["tpp.*"]
					},
					{
						"Field": "path-pattern",
						"Values": ["/tppportalv1/tppportal/applications"]
					}
				],
				"ListenerArn": {
					"Ref": "HttpsListenerForLoadBalancerPort443"
				},
				"Priority": 13
			}
		},
		"ListenerRule14ForHttpsListenerForLoadBalancer": {
			"Type": "AWS::ElasticLoadBalancingV2::ListenerRule",
			"Properties": {
				"Actions": [{
					"Type": "forward",
					"TargetGroupArn": {
						"Ref": "EdgeServerTargetGroup"
					}
				}],
				"Conditions": [{
						"Field": "host-header",
						"Values": ["tpp.*"]
					},
					{
						"Field": "path-pattern",
						"Values": ["/tppportalv1/tppportal/auth/session"]
					}
				],
				"ListenerArn": {
					"Ref": "HttpsListenerForLoadBalancerPort443"
				},
				"Priority": 14
			}
		},
		"ListenerRule15ForHttpsListenerForLoadBalancer": {
			"Type": "AWS::ElasticLoadBalancingV2::ListenerRule",
			"Properties": {
				"Actions": [{
					"Type": "forward",
					"TargetGroupArn": {
						"Ref": "EdgeServerTargetGroup"
					}
				}],
				"Conditions": [{
						"Field": "host-header",
						"Values": ["tpp.*"]
					},
					{
						"Field": "path-pattern",
						"Values": ["/tppportalv1/tppportal/errors"]
					}
				],
				"ListenerArn": {
					"Ref": "HttpsListenerForLoadBalancerPort443"
				},
				"Priority": 15
			}
		},
		"ListenerRule16ForHttpsListenerForLoadBalancer": {
			"Type": "AWS::ElasticLoadBalancingV2::ListenerRule",
			"Properties": {
				"Actions": [{
					"Type": "forward",
					"TargetGroupArn": {
						"Ref": "EdgeServerTargetGroup"
					}
				}],
				"Conditions": [{
						"Field": "host-header",
						"Values": ["tpp.*"]
					},
					{
						"Field": "path-pattern",
						"Values": ["/tppportalv1/tppportal/ui/staticContentGet"]
					}
				],
				"ListenerArn": {
					"Ref": "HttpsListenerForLoadBalancerPort443"
				},
				"Priority": 16
			}
		},
		"ListenerRule17ForHttpsListenerForLoadBalancer": {
			"Type": "AWS::ElasticLoadBalancingV2::ListenerRule",
			"Properties": {
				"Actions": [{
					"Type": "forward",
					"TargetGroupArn": {
						"Ref": "EdgeServerTargetGroup"
					}
				}],
				"Conditions": [{
						"Field": "host-header",
						"Values": ["tpp.*"]
					},
					{
						"Field": "path-pattern",
						"Values": ["/tppportalv1/tppportal/organizations"]
					}
				],
				"ListenerArn": {
					"Ref": "HttpsListenerForLoadBalancerPort443"
				},
				"Priority": 17
			}
		},
		"ListenerRule18ForHttpsListenerForLoadBalancer": {
			"Type": "AWS::ElasticLoadBalancingV2::ListenerRule",
			"Properties": {
				"Actions": [{
					"Type": "forward",
					"TargetGroupArn": {
						"Ref": "EdgeServerTargetGroup"
					}
				}],
				"Conditions": [{
						"Field": "host-header",
						"Values": ["auth.*"]
					},
					{
						"Field": "path-pattern",
						"Values": ["/consentapplicationv1/openbanking-consent/ui/staticContentGet"]
					}
				],
				"ListenerArn": {
					"Ref": "HttpsListenerForLoadBalancerPort443"
				},
				"Priority": 18
			}
		},
		"ListenerRule19ForHttpsListenerForLoadBalancer": {
			"Type": "AWS::ElasticLoadBalancingV2::ListenerRule",
			"Properties": {
				"Actions": [{
					"Type": "forward",
					"TargetGroupArn": {
						"Ref": "EdgeServerTargetGroup"
					}
				}],
				"Conditions": [{
						"Field": "host-header",
						"Values": ["auth.*"]
					},
					{
						"Field": "path-pattern",
						"Values": ["/consentapplicationv1/openbanking-consent/pisp/home"]
					}
				],
				"ListenerArn": {
					"Ref": "HttpsListenerForLoadBalancerPort443"
				},
				"Priority": 19
			}
		},
		"ListenerRule20ForHttpsListenerForLoadBalancer": {
			"Type": "AWS::ElasticLoadBalancingV2::ListenerRule",
			"Properties": {
				"Actions": [{
					"Type": "forward",
					"TargetGroupArn": {
						"Ref": "EdgeServerTargetGroup"
					}
				}],
				"Conditions": [{
						"Field": "host-header",
						"Values": ["auth.*"]
					},
					{
						"Field": "path-pattern",
						"Values": ["/consentapplicationv1/openbanking-consent/pisp/checkSession"]
					}
				],
				"ListenerArn": {
					"Ref": "HttpsListenerForLoadBalancerPort443"
				},
				"Priority": 20
			}
		},
		"ListenerRule21ForHttpsListenerForLoadBalancer": {
			"Type": "AWS::ElasticLoadBalancingV2::ListenerRule",
			"Properties": {
				"Actions": [{
					"Type": "forward",
					"TargetGroupArn": {
						"Ref": "EdgeServerTargetGroup"
					}
				}],
				"Conditions": [{
						"Field": "host-header",
						"Values": ["auth.*"]
					},
					{
						"Field": "path-pattern",
						"Values": ["/consentapplicationv1/openbanking-consent/pisp/askForLogin"]
					}
				],
				"ListenerArn": {
					"Ref": "HttpsListenerForLoadBalancerPort443"
				},
				"Priority": 21
			}
		},
		"ListenerRule22ForHttpsListenerForLoadBalancer": {
			"Type": "AWS::ElasticLoadBalancingV2::ListenerRule",
			"Properties": {
				"Actions": [{
					"Type": "forward",
					"TargetGroupArn": {
						"Ref": "EdgeServerTargetGroup"
					}
				}],
				"Conditions": [{
						"Field": "host-header",
						"Values": ["auth.*"]
					},
					{
						"Field": "path-pattern",
						"Values": ["/consentapplicationv1/openbanking-consent/aisp/askForLogin"]
					}
				],
				"ListenerArn": {
					"Ref": "HttpsListenerForLoadBalancerPort443"
				},
				"Priority": 22
			}
		},
		"ListenerRule23ForHttpsListenerForLoadBalancer": {
			"Type": "AWS::ElasticLoadBalancingV2::ListenerRule",
			"Properties": {
				"Actions": [{
					"Type": "forward",
					"TargetGroupArn": {
						"Ref": "EdgeServerTargetGroup"
					}
				}],
				"Conditions": [{
						"Field": "host-header",
						"Values": ["auth.*"]
					},
					{
						"Field": "path-pattern",
						"Values": ["/consentapplicationv1/openbanking-consent/aisp/home"]
					}
				],
				"ListenerArn": {
					"Ref": "HttpsListenerForLoadBalancerPort443"
				},
				"Priority": 23
			}
		},
		"ListenerRule24ForHttpsListenerForLoadBalancer": {
			"Type": "AWS::ElasticLoadBalancingV2::ListenerRule",
			"Properties": {
				"Actions": [{
					"Type": "forward",
					"TargetGroupArn": {
						"Ref": "EdgeServerTargetGroup"
					}
				}],
				"Conditions": [{
						"Field": "host-header",
						"Values": ["auth.*"]
					},
					{
						"Field": "path-pattern",
						"Values": ["/consentapplicationv1/openbanking-consent/pisp/cancelConsent"]
					}
				],
				"ListenerArn": {
					"Ref": "HttpsListenerForLoadBalancerPort443"
				},
				"Priority": 24
			}
		},
		"ListenerRule25ForHttpsListenerForLoadBalancer": {
			"Type": "AWS::ElasticLoadBalancingV2::ListenerRule",
			"Properties": {
				"Actions": [{
					"Type": "forward",
					"TargetGroupArn": {
						"Ref": "EdgeServerTargetGroup"
					}
				}],
				"Conditions": [{
						"Field": "host-header",
						"Values": ["auth.*"]
					},
					{
						"Field": "path-pattern",
						"Values": ["/consentapplicationv1/openbanking-consent/pisp/consent"]
					}
				],
				"ListenerArn": {
					"Ref": "HttpsListenerForLoadBalancerPort443"
				},
				"Priority": 25
			}
		},
		"ListenerRule26ForHttpsListenerForLoadBalancer": {
			"Type": "AWS::ElasticLoadBalancingV2::ListenerRule",
			"Properties": {
				"Actions": [{
					"Type": "forward",
					"TargetGroupArn": {
						"Ref": "EdgeServerTargetGroup"
					}
				}],
				"Conditions": [{
						"Field": "host-header",
						"Values": ["auth.*"]
					},
					{
						"Field": "path-pattern",
						"Values": ["/consentapplicationv1/openbanking-consent/pisp/preAuthorisation"]
					}
				],
				"ListenerArn": {
					"Ref": "HttpsListenerForLoadBalancerPort443"
				},
				"Priority": 26
			}
		},
		"ListenerRule27ForHttpsListenerForLoadBalancer": {
			"Type": "AWS::ElasticLoadBalancingV2::ListenerRule",
			"Properties": {
				"Actions": [{
					"Type": "forward",
					"TargetGroupArn": {
						"Ref": "EdgeServerTargetGroup"
					}
				}],
				"Conditions": [{
						"Field": "host-header",
						"Values": ["auth.*"]
					},
					{
						"Field": "path-pattern",
						"Values": ["/consentapplicationv1/openbanking-consent/pisp/customerconsentview"]
					}
				],
				"ListenerArn": {
					"Ref": "HttpsListenerForLoadBalancerPort443"
				},
				"Priority": 27
			}
		},
		"ListenerRule28ForHttpsListenerForLoadBalancer": {
			"Type": "AWS::ElasticLoadBalancingV2::ListenerRule",
			"Properties": {
				"Actions": [{
					"Type": "forward",
					"TargetGroupArn": {
						"Ref": "EdgeServerTargetGroup"
					}
				}],
				"Conditions": [{
						"Field": "host-header",
						"Values": ["auth.*"]
					},
					{
						"Field": "path-pattern",
						"Values": ["/consentapplicationv1/openbanking-consent/aisp/checkSession"]
					}
				],
				"ListenerArn": {
					"Ref": "HttpsListenerForLoadBalancerPort443"
				},
				"Priority": 28
			}
		},
		"ListenerRule29ForHttpsListenerForLoadBalancer": {
			"Type": "AWS::ElasticLoadBalancingV2::ListenerRule",
			"Properties": {
				"Actions": [{
					"Type": "forward",
					"TargetGroupArn": {
						"Ref": "EdgeServerTargetGroup"
					}
				}],
				"Conditions": [{
						"Field": "host-header",
						"Values": ["auth.*"]
					},
					{
						"Field": "path-pattern",
						"Values": ["/consentapplicationv1/openbanking-consent/aisp/cancelConsent"]
					}
				],
				"ListenerArn": {
					"Ref": "HttpsListenerForLoadBalancerPort443"
				},
				"Priority": 29
			}
		},
		"ListenerRule30ForHttpsListenerForLoadBalancer": {
			"Type": "AWS::ElasticLoadBalancingV2::ListenerRule",
			"Properties": {
				"Actions": [{
					"Type": "forward",
					"TargetGroupArn": {
						"Ref": "EdgeServerTargetGroup"
					}
				}],
				"Conditions": [{
						"Field": "host-header",
						"Values": ["auth.*"]
					},
					{
						"Field": "path-pattern",
						"Values": ["/consentapplicationv1/openbanking-consent/aisp/consent"]
					}
				],
				"ListenerArn": {
					"Ref": "HttpsListenerForLoadBalancerPort443"
				},
				"Priority": 30
			}
		},
		"ListenerRule31ForHttpsListenerForLoadBalancer": {
			"Type": "AWS::ElasticLoadBalancingV2::ListenerRule",
			"Properties": {
				"Actions": [{
					"Type": "forward",
					"TargetGroupArn": {
						"Ref": "EdgeServerTargetGroup"
					}
				}],
				"Conditions": [{
						"Field": "host-header",
						"Values": ["auth.*"]
					},
					{
						"Field": "path-pattern",
						"Values": ["/consentapplicationv1/openbanking-consent/aisp/customerconsentview"]
					}
				],
				"ListenerArn": {
					"Ref": "HttpsListenerForLoadBalancerPort443"
				},
				"Priority": 31
			}
		},
		"ListenerRule32ForHttpsListenerForLoadBalancer": {
			"Type": "AWS::ElasticLoadBalancingV2::ListenerRule",
			"Properties": {
				"Actions": [{
					"Type": "forward",
					"TargetGroupArn": {
						"Ref": "EdgeServerTargetGroup"
					}
				}],
				"Conditions": [{
						"Field": "host-header",
						"Values": ["auth.*"]
					},
					{
						"Field": "path-pattern",
						"Values": ["/saasv1/SaaS/ui/staticContentGet"]
					}
				],
				"ListenerArn": {
					"Ref": "HttpsListenerForLoadBalancerPort443"
				},
				"Priority": 32
			}
		},
		"ListenerRule33ForHttpsListenerForLoadBalancer": {
			"Type": "AWS::ElasticLoadBalancingV2::ListenerRule",
			"Properties": {
				"Actions": [{
					"Type": "forward",
					"TargetGroupArn": {
						"Ref": "EdgeServerTargetGroup"
					}
				}],
				"Conditions": [{
						"Field": "host-header",
						"Values": ["auth.*"]
					},
					{
						"Field": "path-pattern",
						"Values": ["/saasv1/SaaS/login"]
					}
				],
				"ListenerArn": {
					"Ref": "HttpsListenerForLoadBalancerPort443"
				},
				"Priority": 33
			}
		},
		"ListenerRule34ForHttpsListenerForLoadBalancer": {
			"Type": "AWS::ElasticLoadBalancingV2::ListenerRule",
			"Properties": {
				"Actions": [{
					"Type": "forward",
					"TargetGroupArn": {
						"Ref": "EdgeServerTargetGroup"
					}
				}],
				"Conditions": [{
						"Field": "host-header",
						"Values": ["auth.*"]
					},
					{
						"Field": "path-pattern",
						"Values": ["/saasv1/SaaS/signin"]
					}
				],
				"ListenerArn": {
					"Ref": "HttpsListenerForLoadBalancerPort443"
				},
				"Priority": 34
			}
		},
		"ListenerRule35ForHttpsListenerForLoadBalancer": {
			"Type": "AWS::ElasticLoadBalancingV2::ListenerRule",
			"Properties": {
				"Actions": [{
					"Type": "forward",
					"TargetGroupArn": {
						"Ref": "EdgeServerTargetGroup"
					}
				}],
				"Conditions": [{
						"Field": "host-header",
						"Values": ["auth.*"]
					},
					{
						"Field": "path-pattern",
						"Values": ["/saasv1/SaaS/cancel"]
					}
				],
				"ListenerArn": {
					"Ref": "HttpsListenerForLoadBalancerPort443"
				},
				"Priority": 35
			}
		},
		"ListenerRule36ForHttpsListenerForLoadBalancer": {
			"Type": "AWS::ElasticLoadBalancingV2::ListenerRule",
			"Properties": {
				"Actions": [{
					"Type": "forward",
					"TargetGroupArn": {
						"Ref": "PingFederateAdminTargetGroup"
					}
				}],
				"Conditions": [{
						"Field": "host-header",
						"Values": ["pfadmin.management.*"]
					},
					{
						"Field": "path-pattern",
						"Values": ["/pingfederate/*"]
					}
				],
				"ListenerArn": {
					"Ref": "HttpsListenerForLoadBalancerPort443"
				},
				"Priority": 36
			}
		},
		"ListenerRule37ForHttpsListenerForLoadBalancer": {
			"Type": "AWS::ElasticLoadBalancingV2::ListenerRule",
			"Properties": {
				"Actions": [{
					"Type": "forward",
					"TargetGroupArn": {
						"Ref": "PingFederateAdminTargetGroup"
					}
				}],
				"Conditions": [{
						"Field": "host-header",
						"Values": ["pfadmin.management.*"]
					},
					{
						"Field": "path-pattern",
						"Values": ["/pf-admin-api/*"]
					}
				],
				"ListenerArn": {
					"Ref": "HttpsListenerForLoadBalancerPort443"
				},
				"Priority": 37
			}
		},
		"ListenerRule38ForHttpsListenerForLoadBalancer": {
			"Type": "AWS::ElasticLoadBalancingV2::ListenerRule",
			"Properties": {
				"Actions": [{
					"Type": "forward",
					"TargetGroupArn": {
						"Ref": "MuleTargetGroup"
					}
				}],
				"Conditions": [{
						"Field": "host-header",
						"Values": ["auth.*"]
					},
					{
						"Field": "path-pattern",
						"Values": ["/oauth/as/authorization.oauth2"]
					}
				],
				"ListenerArn": {
					"Ref": "HttpsListenerForLoadBalancerPort443"
				},
				"Priority": 38
			}
		},
		"ListenerRule39ForHttpsListenerForLoadBalancer": {
			"Type": "AWS::ElasticLoadBalancingV2::ListenerRule",
			"Properties": {
				"Actions": [{
					"Type": "forward",
					"TargetGroupArn": {
						"Ref": "MuleTargetGroup"
					}
				}],
				"Conditions": [{
					"Field": "host-header",
					"Values": ["api.*"]
				}],

				"ListenerArn": {
					"Ref": "HttpsListenerForLoadBalancerPort443"
				},
				"Priority": 39
			}
		},

		"ListenerRule40ForHttpsListenerForLoadBalancer": {
			"Type": "AWS::ElasticLoadBalancingV2::ListenerRule",
			"Properties": {
				"Actions": [{
					"Type": "forward",
					"TargetGroupArn": {
						"Ref": "SplunkSearchHeadTargetGroup"
					}
				}],
				"Conditions": [{
					"Field": "host-header",
					"Values": ["reports.management.*"]
				}],

				"ListenerArn": {
					"Ref": "HttpsListenerForLoadBalancerPort443"
				},
				"Priority": 40
			}
		},
		"ListenerRule41ForHttpsListenerForLoadBalancer": {
			"Type": "AWS::ElasticLoadBalancingV2::ListenerRule",
			"Properties": {
				"Actions": [{
					"Type": "forward",
					"TargetGroupArn": {
						"Ref": "MuleTargetGroup"
					}
				}],
				"Conditions": [{
					"Field": "host-header",
					"Values": ["auth.*"]
				},
				{
					"Field": "path-pattern",
					"Values": ["/oauth/as/revoke_token.oauth2"]
				}],

				"ListenerArn": {
					"Ref": "HttpsListenerForLoadBalancerPort443"
				},
				"Priority": 41
			}
		},
		"ListenerRule42ForHttpsListenerForLoadBalancer": {
			"Type": "AWS::ElasticLoadBalancingV2::ListenerRule",
			"Properties": {
				"Actions": [{
					"Type": "forward",
					"TargetGroupArn": {
						"Ref": "PingFederateRuntimeTargetGroup"
					}
				}],
				"Conditions": [{
						"Field": "host-header",
						"Values": ["auth.*"]
					},
					{
						"Field": "path-pattern",
						"Values": ["/as/*/resume/as/authorization.ping"]
					}
				],

				"ListenerArn": {
					"Ref": "HttpsListenerForLoadBalancerPort443"
				},
				"Priority": 42
			}
		},
		"ListenerRule43ForHttpsListenerForLoadBalancer": {
			"Type": "AWS::ElasticLoadBalancingV2::ListenerRule",
			"Properties": {
				"Actions": [{
					"Type": "forward",
					"TargetGroupArn": {
						"Ref": "PingFederateRuntimeTargetGroup"
					}
				}],
				"Conditions": [{
						"Field": "host-header",
						"Values": ["auth.*"]
					},
					{
						"Field": "path-pattern",
						"Values": ["/assets/*"]
					}
				],

				"ListenerArn": {
					"Ref": "HttpsListenerForLoadBalancerPort443"
				},
				"Priority": 43
			}
		},
		"ListenerRule44ForHttpsListenerForLoadBalancer": {
			"Type": "AWS::ElasticLoadBalancingV2::ListenerRule",
			"Properties": {
				"Actions": [{
					"Type": "forward",
					"TargetGroupArn": {
						"Ref": "SplunkMasterTargetGroup"
					}
				}],
				"Conditions": [{
						"Field": "host-header",
						"Values": ["splunk-admin.management.*"]
					}
				],

				"ListenerArn": {
					"Ref": "HttpsListenerForLoadBalancerPort443"
				},
				"Priority": 44
			}
		},
		"ListenerRule45ForHttpsListenerForLoadBalancer": {
			"Type": "AWS::ElasticLoadBalancingV2::ListenerRule",
			"Properties": {
				"Actions": [{
					"Type": "forward",
					"TargetGroupArn": {
						"Ref": "MuleTargetGroup"
					}
				}],
				"Conditions": [{
						"Field": "host-header",
						"Values": ["auth.*"]
					},
					{
						"Field": "path-pattern",
						"Values": ["/oauth/as/.well-known/openid-configuration"]
					}
				],

				"ListenerArn": {
					"Ref": "HttpsListenerForLoadBalancerPort443"
				},
				"Priority": 45
			}
		},
		"ListenerRule46ForHttpsListenerForLoadBalancer": {
			"Type": "AWS::ElasticLoadBalancingV2::ListenerRule",
			"Properties": {
				"Actions": [{
					"Type": "forward",
					"TargetGroupArn": {
						"Ref": "LDAPTargetGroup"
					}
				}],
				"Conditions": [{
						"Field": "host-header",
						"Values": ["dsadmin.management.*"]
					}
				],

				"ListenerArn": {
					"Ref": "HttpsListenerForLoadBalancerPort443"
				},
				"Priority": 46
			}
		}

	},
	"Outputs": {
		"MuleTargetGroup": {
			"Value": {
				"Ref": "MuleTargetGroup"
			}
		},
		"PingFederateAdminTargetGroup": {
			"Value": {
				"Ref": "PingFederateAdminTargetGroup"
			}
		},
		"PingFederateRuntimeTargetGroup": {
			"Value": {
				"Ref": "PingFederateRuntimeTargetGroup"
			}
		},
		"ConfigServerTargetGroup": {
			"Value": {
				"Ref": "ConfigServerTargetGroup"
			}
		},
		"EdgeServerTargetGroup": {
			"Value": {
				"Ref": "EdgeServerTargetGroup"
			}
		},
		"SplunkSearchHeadTargetGroup": {
			"Value": {
				"Ref": "SplunkSearchHeadTargetGroup"
			}
		},
		"LDAPTargetGroup": {
			"Value": {
				"Ref": "LDAPTargetGroup"
			}
		},
		"SplunkMasterTargetGroup": {
			"Value": {
				"Ref": "SplunkMasterTargetGroup"
			}
		}
	}
}